{
  "cordova-plugin-whitelist": {
    "source": {
      "type": "registry",
      "id": "cordova-plugin-whitelist@^1.3.3"
    },
    "is_top_level": true,
    "variables": {}
  },
  "cordova-plugin-statusbar": {
    "source": {
      "type": "registry",
      "id": "cordova-plugin-statusbar@^2.4.2"
    },
    "is_top_level": true,
    "variables": {}
  },
  "cordova-plugin-device": {
    "source": {
      "type": "registry",
      "id": "cordova-plugin-device@^2.0.2"
    },
    "is_top_level": true,
    "variables": {}
  },
  "cordova-plugin-splashscreen": {
    "source": {
      "type": "registry",
      "id": "cordova-plugin-splashscreen@^5.0.2"
    },
    "is_top_level": true,
    "variables": {}
  },
  "cordova-plugin-ionic-webview": {
    "source": {
      "type": "registry",
      "id": "cordova-plugin-ionic-webview@^4.1.1"
    },
    "is_top_level": true,
    "variables": {
      "ANDROID_SUPPORT_ANNOTATIONS_VERSION": "27.+"
    }
  },
  "cordova-plugin-ionic-keyboard": {
    "source": {
      "type": "registry",
      "id": "cordova-plugin-ionic-keyboard@^2.2.0"
    },
    "is_top_level": true,
    "variables": {}
  },
  "cordova-plugin-nativegeocoder": {
    "source": {
      "type": "registry",
      "id": "cordova-plugin-nativegeocoder@^3.2.2"
    },
    "is_top_level": true,
    "variables": {}
  },
  "cordova-plugin-googlemaps": {
    "source": {
      "type": "registry",
      "id": "git+https://github.com/mapsplugin/cordova-plugin-googlemaps.git#multiple_maps"
    },
    "is_top_level": true,
    "variables": {
      "PLAY_SERVICES_VERSION": "15.0.1",
      "ANDROID_SUPPORT_V4_VERSION": "27.+"
    }
  },
  "cordova-androidx-build": {
    "source": {
      "type": "registry",
      "id": "cordova-androidx-build"
    },
    "is_top_level": false,
    "variables": {}
  },
  "cordova-android-play-services-gradle-release": {
    "source": {
      "type": "registry",
      "id": "cordova-android-play-services-gradle-release@^2.0.0"
    },
    "is_top_level": true,
    "variables": {
      "PLAY_SERVICES_VERSION": "+"
    }
  },
  "com.cordova.plugins.cookiemaster": {
    "source": {
      "type": "registry",
      "id": "com.cordova.plugins.cookiemaster@^1.0.1"
    },
    "is_top_level": true,
    "variables": {}
  },
  "cordova-plugin-advanced-websocket": {
    "source": {
      "type": "registry",
      "id": "cordova-plugin-advanced-websocket@^1.1.5"
    },
    "is_top_level": true,
    "variables": {}
  },
  "cordova-android-firebase-gradle-release": {
    "source": {
      "type": "registry",
      "id": "cordova-android-firebase-gradle-release@^2.0.0"
    },
    "is_top_level": true,
    "variables": {
      "FIREBASE_VERSION": "+"
    }
  },
  "cordova-plugin-androidx-adapter": {
    "source": {
      "type": "registry",
      "id": "cordova-plugin-androidx-adapter@^1.1.1"
    },
    "is_top_level": true,
    "variables": {}
  },
  "cordova-plugin-androidx": {
    "source": {
      "type": "registry",
      "id": "cordova-plugin-androidx@^2.0.0"
    },
    "is_top_level": true,
    "variables": {}
  },
  "cordova-plugin-app-version": {
    "source": {
      "type": "registry",
      "id": "cordova-plugin-app-version@^0.1.9"
    },
    "is_top_level": true,
    "variables": {}
  }
}